// Jest Snapshot v1, https://goo.gl/fbAQLP

exports[`has correct exports 1`] = `
Array [
  Object {
    "asyncChunksPlugin": false,
  },
  Object {
    "brotliPlugin": true,
  },
  Object {
    "bundleAnalyzerPlugin": true,
  },
  Object {
    "gzipPlugin": true,
  },
  Object {
    "inlineEnvPlugin": true,
  },
  Object {
    "reactIntlLocalesPickPlugin": true,
  },
  Object {
    "statsPlugin": true,
  },
  Object {
    "vendorChunkPlugin": false,
  },
  Object {
    "minimizerOptimization": true,
  },
  Object {
    "runtimeChunkOptimization": true,
  },
  Object {
    "fontsRule": true,
  },
  Object {
    "gqlRule": true,
  },
  Object {
    "jsRule": true,
  },
  Object {
    "resolveSettings": true,
  },
]
`;
