// Jest Snapshot v1, https://goo.gl/fbAQLP

exports[`has correct exports 1`] = `
Array [
  Object {
    "default": true,
  },
  Object {
    "nonce": true,
  },
  Object {
    "flush": true,
  },
  Object {
    "hydrate": true,
  },
  Object {
    "cx": true,
  },
  Object {
    "merge": true,
  },
  Object {
    "getRegisteredStyles": true,
  },
  Object {
    "injectGlobal": true,
  },
  Object {
    "keyframes": true,
  },
  Object {
    "css": true,
  },
  Object {
    "sheet": true,
  },
  Object {
    "caches": true,
  },
]
`;
