// Jest Snapshot v1, https://goo.gl/fbAQLP

exports[`Card default render 1`] = `
.emotion-0 {
  padding: 0.3125rem;
  box-shadow: 0px 3px 1px -2px rgba(0,0,0,0.2), 0px 2px 2px 0px rgba(0,0,0,0.14), 0px 1px 5px 0px rgba(0,0,0,0.12);
}

<div
  className="emotion-0 emotion-1"
>
  <div />
</div>
`;
