// Jest Snapshot v1, https://goo.gl/fbAQLP

exports[`shadow mixin: 0 param 1`] = `
Object {
  "boxShadow": "none",
}
`;

exports[`shadow mixin: 1 param 1`] = `
Object {
  "boxShadow": "0px 2px 1px -1px rgba(0,0,0,0.2),
              0px 1px 1px 0px rgba(0,0,0,0.14),
              0px 1px 3px 0px rgba(0,0,0,0.12)",
}
`;

exports[`shadow mixin: 2 param 1`] = `
Object {
  "boxShadow": "0px 3px 1px -2px rgba(0,0,0,0.2),
              0px 2px 2px 0px rgba(0,0,0,0.14),
              0px 1px 5px 0px rgba(0,0,0,0.12)",
}
`;

exports[`shadow mixin: 3 param 1`] = `
Object {
  "boxShadow": "0px 3px 3px -2px rgba(0,0,0,0.2),
              0px 3px 4px 0px rgba(0,0,0,0.14),
              0px 1px 8px 0px rgba(0,0,0,0.12)",
}
`;

exports[`shadow mixin: 4 param 1`] = `
Object {
  "boxShadow": "0px 2px 4px -1px rgba(0,0,0,0.2),
              0px 4px 5px 0px rgba(0,0,0,0.14),
              0px 1px 10px 0px rgba(0,0,0,0.12)",
}
`;

exports[`shadow mixin: 5 param 1`] = `
Object {
  "boxShadow": "0px 3px 5px -1px rgba(0,0,0,0.2),
              0px 5px 8px 0px rgba(0,0,0,0.14),
              0px 1px 14px 0px rgba(0,0,0,0.12)",
}
`;

exports[`shadow mixin: 6 param 1`] = `
Object {
  "boxShadow": "0px 3px 5px -1px rgba(0,0,0,0.2),
              0px 6px 10px 0px rgba(0,0,0,0.14),
              0px 1px 18px 0px rgba(0,0,0,0.12)",
}
`;

exports[`shadow mixin: 7 param 1`] = `
Object {
  "boxShadow": "0px 4px 5px -2px rgba(0,0,0,0.2),
              0px 7px 10px 1px rgba(0,0,0,0.14),
              0px 2px 16px 1px rgba(0,0,0,0.12)",
}
`;

exports[`shadow mixin: 8 param 1`] = `
Object {
  "boxShadow": "0px 5px 5px -3px rgba(0,0,0,0.2),
              0px 8px 10px 1px rgba(0,0,0,0.14),
              0px 3px 14px 2px rgba(0,0,0,0.12)",
}
`;

exports[`shadow mixin: 9 param 1`] = `
Object {
  "boxShadow": "0px 5px 6px -3px rgba(0,0,0,0.2),
              0px 9px 12px 1px rgba(0,0,0,0.14),
              0px 3px 16px 2px rgba(0,0,0,0.12)",
}
`;

exports[`shadow mixin: 10 param 1`] = `
Object {
  "boxShadow": "0px 6px 6px -3px rgba(0,0,0,0.2),
              0px 10px 14px 1px rgba(0,0,0,0.14),
              0px 4px 18px 3px rgba(0,0,0,0.12)",
}
`;

exports[`shadow mixin: 11 param 1`] = `
Object {
  "boxShadow": "0px 6px 7px -4px rgba(0,0,0,0.2),
              0px 11px 15px 1px rgba(0,0,0,0.14),
              0px 4px 20px 3px rgba(0,0,0,0.12)",
}
`;

exports[`shadow mixin: 12 param 1`] = `
Object {
  "boxShadow": "0px 7px 8px -4px rgba(0,0,0,0.2),
              0px 12px 17px 2px rgba(0,0,0,0.14),
              0px 5px 22px 4px rgba(0,0,0,0.12)",
}
`;

exports[`shadow mixin: 13 param 1`] = `
Object {
  "boxShadow": "0px 7px 8px -4px rgba(0,0,0,0.2),
              0px 13px 19px 2px rgba(0,0,0,0.14),
              0px 5px 24px 4px rgba(0,0,0,0.12)",
}
`;

exports[`shadow mixin: 14 param 1`] = `
Object {
  "boxShadow": "0px 7px 9px -4px rgba(0,0,0,0.2),
              0px 14px 21px 2px rgba(0,0,0,0.14),
              0px 5px 26px 4px rgba(0,0,0,0.12)",
}
`;

exports[`shadow mixin: 15 param 1`] = `
Object {
  "boxShadow": "0px 8px 9px -5px rgba(0,0,0,0.2),
              0px 15px 22px 2px rgba(0,0,0,0.14),
              0px 6px 28px 5px rgba(0,0,0,0.12)",
}
`;

exports[`shadow mixin: 16 param 1`] = `
Object {
  "boxShadow": "0px 8px 10px -5px rgba(0,0,0,0.2),
              0px 16px 24px 2px rgba(0,0,0,0.14),
              0px 6px 30px 5px rgba(0,0,0,0.12)",
}
`;

exports[`shadow mixin: 17 param 1`] = `
Object {
  "boxShadow": "0px 8px 11px -5px rgba(0,0,0,0.2),
              0px 17px 26px 2px rgba(0,0,0,0.14),
              0px 6px 32px 5px rgba(0,0,0,0.12)",
}
`;

exports[`shadow mixin: 18 param 1`] = `
Object {
  "boxShadow": "0px 9px 11px -5px rgba(0,0,0,0.2),
              0px 18px 28px 2px rgba(0,0,0,0.14),
              0px 7px 34px 6px rgba(0,0,0,0.12)",
}
`;

exports[`shadow mixin: 19 param 1`] = `
Object {
  "boxShadow": "0px 9px 12px -6px rgba(0,0,0,0.2),
              0px 19px 29px 2px rgba(0,0,0,0.14),
              0px 7px 36px 6px rgba(0,0,0,0.12)",
}
`;

exports[`shadow mixin: 20 param 1`] = `
Object {
  "boxShadow": "0px 10px 13px -6px rgba(0,0,0,0.2),
              0px 20px 31px 3px rgba(0,0,0,0.14),
              0px 8px 38px 7px rgba(0,0,0,0.12)",
}
`;

exports[`shadow mixin: 21 param 1`] = `
Object {
  "boxShadow": "0px 10px 13px -6px rgba(0,0,0,0.2),
              0px 21px 33px 3px rgba(0,0,0,0.14),
              0px 8px 40px 7px rgba(0,0,0,0.12)",
}
`;

exports[`shadow mixin: 22 param 1`] = `
Object {
  "boxShadow": "0px 10px 14px -6px rgba(0,0,0,0.2),
              0px 22px 35px 3px rgba(0,0,0,0.14),
              0px 8px 42px 7px rgba(0,0,0,0.12)",
}
`;

exports[`shadow mixin: 23 param 1`] = `
Object {
  "boxShadow": "0px 11px 14px -7px rgba(0,0,0,0.2),
              0px 23px 36px 3px rgba(0,0,0,0.14),
              0px 9px 44px 8px rgba(0,0,0,0.12)",
}
`;

exports[`shadow mixin: 24 param 1`] = `
Object {
  "boxShadow": "0px 11px 15px -7px rgba(0,0,0,0.2),
              0px 24px 38px 3px rgba(0,0,0,0.14),
              0px 9px 46px 8px rgba(0,0,0,0.12)",
}
`;

exports[`shadow mixin: focus param 1`] = `
Object {
  "boxShadow": "0 0 8px rgba(0,0,0,0.18),
              0 8px 16px rgba(0,0,0,0.36)",
}
`;

exports[`shadow mixin: undefined param 1`] = `
Object {
  "boxShadow": "none",
}
`;
