{
  "collectCoverageFrom": ["src/**/*.js"],
  "modulePaths": [
    "<rootDir>/src",
    "<rootDir>/node_modules"
  ],
  "testEnvironment": "node",
  "testPathIgnorePatterns": [
    "<rootDir>/es/",
    "<rootDir>/lib/",
    "<rootDir>/flow-typed/",
    "<rootDir>/node_modules/"
  ],
  "transform": {
    "^.+\\.jsx?$": "babel-jest"
  }
}
