// Jest Snapshot v1, https://goo.gl/fbAQLP

exports[`has correct exports 1`] = `
Array [
  Object {
    "Checkbox": true,
  },
  Object {
    "DatePicker": true,
  },
  Object {
    "Radio": true,
  },
  Object {
    "Select": true,
  },
  Object {
    "Text": true,
  },
  Object {
    "TextArea": true,
  },
  Object {
    "Input": true,
  },
]
`;
