// Jest Snapshot v1, https://goo.gl/fbAQLP

exports[`Primary Button with icon 1`] = `
.emotion-4 {
  display: -webkit-box;
  display: -webkit-flex;
  display: -ms-flexbox;
  display: flex;
  -webkit-flex: none;
  -ms-flex: none;
  flex: none;
  border-style: solid;
  border-radius: 0.25rem;
  border-width: 0.125rem;
  cursor: pointer;
  height: 2.25rem;
  min-width: 0.5rem;
  padding-left: 1rem;
  padding-right: 1rem;
  -webkit-transition: background-color 0.15s ease-in;
  transition: background-color 0.15s ease-in;
  background-color: black;
  border-color: black;
  color: #fff;
}

.emotion-4:hover {
  background-color: black;
  border-color: black;
}

.emotion-4:active {
  background-color: #000;
  border-color: #000;
}

.emotion-2 {
  font-size: 0.875rem;
  font-weight: 600;
  text-transform: capitalize;
}

.emotion-0 {
  margin-right: 0.5rem;
}

<button
  className="emotion-4 emotion-5"
>
  <span
    className="emotion-0 emotion-1"
  >
    <div>
      icon element
    </div>
  </span>
  <span
    className="emotion-2 emotion-3"
  >
    TEST
  </span>
</button>
`;

exports[`Primary button renders correctly using theme 1`] = `
.emotion-2 {
  display: -webkit-box;
  display: -webkit-flex;
  display: -ms-flexbox;
  display: flex;
  -webkit-flex: none;
  -ms-flex: none;
  flex: none;
  border-style: solid;
  border-radius: 0.25rem;
  border-width: 0.125rem;
  cursor: pointer;
  height: 2.25rem;
  min-width: 0.5rem;
  padding-left: 1rem;
  padding-right: 1rem;
  -webkit-transition: background-color 0.15s ease-in;
  transition: background-color 0.15s ease-in;
  background-color: black;
  border-color: black;
  color: #fff;
}

.emotion-2:hover {
  background-color: black;
  border-color: black;
}

.emotion-2:active {
  background-color: #000;
  border-color: #000;
}

.emotion-0 {
  font-size: 0.875rem;
  font-weight: 600;
  text-transform: capitalize;
}

<button
  className="emotion-2 emotion-3"
>
  <span
    className="emotion-0 emotion-1"
  >
    TEST
  </span>
</button>
`;
